module gitlab.com/iamtkadir/catbin

go 1.17

require github.com/labstack/echo/v4 v4.7.2

require (
	github.com/google/uuid v1.3.0 // indirect
	github.com/jinzhu/inflection v1.0.0 // indirect
	github.com/jinzhu/now v1.1.5 // indirect
	github.com/labstack/gommon v0.3.1 // indirect
	github.com/mattn/go-colorable v0.1.12 // indirect
	github.com/mattn/go-isatty v0.0.14 // indirect
	github.com/mattn/go-sqlite3 v1.14.12 // indirect
	github.com/stretchr/testify v1.7.1-0.20210427113832-6241f9ab9942 // indirect
	github.com/valyala/bytebufferpool v1.0.0 // indirect
	github.com/valyala/fasttemplate v1.2.1 // indirect
	golang.org/x/crypto v0.0.0-20210817164053-32db794688a5 // indirect
	golang.org/x/net v0.0.0-20211015210444-4f30a5c0130f // indirect
	golang.org/x/sys v0.0.0-20211205182925-97ca703d548d // indirect
	golang.org/x/text v0.3.7 // indirect
	gorm.io/driver/sqlite v1.3.2 // indirect
	gorm.io/gorm v1.23.5 // indirect
)
